[{
  "id": 1,
  "fecha": "7/26/2018",
  "importe": 96,
  "latitud": 41.1844529,
  "longitud": 19.5627596,
  "ciudad": "Kavajë"
}, {
  "id": 2,
  "fecha": "7/10/2018",
  "importe": 60,
  "latitud": 52.8886634,
  "longitud": 18.1227285,
  "ciudad": "Złotniki Kujawskie"
}, {
  "id": 3,
  "fecha": "1/16/2019",
  "importe": 30,
  "latitud": -1.5844023,
  "longitud": 14.2657584,
  "ciudad": "Lékoni"
}, {
  "id": 4,
  "fecha": "1/12/2019",
  "importe": 28,
  "latitud": -18.1661375,
  "longitud": -47.944531,
  "ciudad": "Catalão"
}, {
  "id": 5,
  "fecha": "11/17/2018",
  "importe": 18,
  "latitud": 39.8086333,
  "longitud": 116.4455561,
  "ciudad": "Guojia"
}, {
  "id": 6,
  "fecha": "6/12/2018",
  "importe": 53,
  "latitud": 55.5376879,
  "longitud": 42.0791342,
  "ciudad": "Murom"
}, {
  "id": 7,
  "fecha": "7/25/2018",
  "importe": 5,
  "latitud": 29.046337,
  "longitud": 93.074702,
  "ciudad": "Nangxian"
}, {
  "id": 8,
  "fecha": "10/13/2018",
  "importe": 72,
  "latitud": 22.555259,
  "longitud": 113.884019,
  "ciudad": "Bao’an"
}, {
  "id": 9,
  "fecha": "4/18/2018",
  "importe": 98,
  "latitud": 56.7034937,
  "longitud": 41.3503153,
  "ciudad": "Kolobovo"
}, {
  "id": 10,
  "fecha": "5/26/2018",
  "importe": 92,
  "latitud": 19.5037694,
  "longitud": -99.1324282,
  "ciudad": "Lindavista"
}, {
  "id": 11,
  "fecha": "7/3/2018",
  "importe": 56,
  "latitud": 7.0654022,
  "longitud": -3.9572374,
  "ciudad": "Daoukro"
}, {
  "id": 12,
  "fecha": "6/3/2018",
  "importe": 3,
  "latitud": 13.3723061,
  "longitud": -16.6515647,
  "ciudad": "Brikama Nding"
}, {
  "id": 13,
  "fecha": "8/12/2018",
  "importe": 2,
  "latitud": -34.6107923,
  "longitud": -58.4654718,
  "ciudad": "Médanos"
}, {
  "id": 14,
  "fecha": "8/19/2018",
  "importe": 24,
  "latitud": -17.4850319,
  "longitud": 16.3287199,
  "ciudad": "Eenhana"
}, {
  "id": 15,
  "fecha": "12/23/2018",
  "importe": 44,
  "latitud": "32.0547",
  "longitud": "35.12908",
  "ciudad": "Qarāwat Banī Zayd"
}, {
  "id": 16,
  "fecha": "7/13/2018",
  "importe": 43,
  "latitud": 43.1729478,
  "longitud": 16.4411136,
  "ciudad": "Hvar"
}, {
  "id": 17,
  "fecha": "11/1/2018",
  "importe": 53,
  "latitud": 47.185098,
  "longitud": 127.287077,
  "ciudad": "Heyan"
}, {
  "id": 18,
  "fecha": "8/23/2018",
  "importe": 65,
  "latitud": -8.7695621,
  "longitud": -74.7088325,
  "ciudad": "Honoria"
}, {
  "id": 19,
  "fecha": "8/21/2018",
  "importe": 53,
  "latitud": 49.4576263,
  "longitud": 35.1200067,
  "ciudad": "Karlivka"
}, {
  "id": 20,
  "fecha": "2/9/2019",
  "importe": 50,
  "latitud": 40.76191,
  "longitud": -7.7532796,
  "ciudad": "Cruz"
}, {
  "id": 21,
  "fecha": "1/6/2019",
  "importe": 74,
  "latitud": 4.1581668,
  "longitud": 11.5361726,
  "ciudad": "Obala"
}, {
  "id": 22,
  "fecha": "8/1/2018",
  "importe": 93,
  "latitud": 25.525292,
  "longitud": 108.260701,
  "ciudad": "Heyin"
}, {
  "id": 23,
  "fecha": "10/2/2018",
  "importe": 94,
  "latitud": -8.1306189,
  "longitud": 113.7603078,
  "ciudad": "Bedadung Kulon"
}, {
  "id": 24,
  "fecha": "8/1/2018",
  "importe": 70,
  "latitud": 16.6078107,
  "longitud": 101.9291015,
  "ciudad": "Khon San"
}, {
  "id": 25,
  "fecha": "7/27/2018",
  "importe": 5,
  "latitud": 53.0903178,
  "longitud": 8.9354031,
  "ciudad": "Bremen"
}, {
  "id": 26,
  "fecha": "2/5/2019",
  "importe": 29,
  "latitud": 52.704412,
  "longitud": 44.5519415,
  "ciudad": "Kolyshley"
}, {
  "id": 27,
  "fecha": "6/8/2018",
  "importe": 83,
  "latitud": -16.1328104,
  "longitud": 33.6063855,
  "ciudad": "Tete"
}, {
  "id": 28,
  "fecha": "5/25/2018",
  "importe": 51,
  "latitud": 37.9706037,
  "longitud": 22.780253,
  "ciudad": "Kokkónion"
}, {
  "id": 29,
  "fecha": "1/12/2019",
  "importe": 68,
  "latitud": 14.8801218,
  "longitud": -91.4586872,
  "ciudad": "San Luis"
}, {
  "id": 30,
  "fecha": "6/19/2018",
  "importe": 68,
  "latitud": 30.335237,
  "longitud": 112.239631,
  "ciudad": "Jingzhou"
}, {
  "id": 31,
  "fecha": "1/5/2019",
  "importe": 99,
  "latitud": -16.8488172,
  "longitud": -42.0633003,
  "ciudad": "Araçuaí"
}, {
  "id": 32,
  "fecha": "3/1/2019",
  "importe": 58,
  "latitud": 49.5320711,
  "longitud": 18.1244102,
  "ciudad": "Veřovice"
}, {
  "id": 33,
  "fecha": "7/24/2018",
  "importe": 75,
  "latitud": -7.1239748,
  "longitud": 108.1992015,
  "ciudad": "Puteran Kidul"
}, {
  "id": 34,
  "fecha": "10/12/2018",
  "importe": 75,
  "latitud": 40.9156544,
  "longitud": 24.2547455,
  "ciudad": "Eleftheroúpolis"
}, {
  "id": 35,
  "fecha": "8/18/2018",
  "importe": 59,
  "latitud": -13.4017106,
  "longitud": -44.2097085,
  "ciudad": "Santa Maria da Vitória"
}, {
  "id": 36,
  "fecha": "9/17/2018",
  "importe": 18,
  "latitud": 49.0395242,
  "longitud": 16.6188111,
  "ciudad": "Židlochovice"
}, {
  "id": 37,
  "fecha": "3/17/2018",
  "importe": 65,
  "latitud": 0.944785,
  "longitud": 33.126717,
  "ciudad": "Kamuli"
}, {
  "id": 38,
  "fecha": "2/28/2019",
  "importe": 42,
  "latitud": 49.458286,
  "longitud": 12.806791,
  "ciudad": "Postřekov"
}, {
  "id": 39,
  "fecha": "9/20/2018",
  "importe": 50,
  "latitud": 7.5245233,
  "longitud": -76.317414,
  "ciudad": "Tierralta"
}, {
  "id": 40,
  "fecha": "5/23/2018",
  "importe": 75,
  "latitud": 39.8286146,
  "longitud": 69.5320824,
  "ciudad": "Isfana"
}, {
  "id": 41,
  "fecha": "12/25/2018",
  "importe": 25,
  "latitud": 13.7122103,
  "longitud": 9.1594532,
  "ciudad": "Mirriah"
}, {
  "id": 42,
  "fecha": "12/3/2018",
  "importe": 23,
  "latitud": 21.48227,
  "longitud": 109.924347,
  "ciudad": "Yingzai"
}, {
  "id": 43,
  "fecha": "1/10/2019",
  "importe": 98,
  "latitud": 29.7444645,
  "longitud": 105.7948814,
  "ciudad": "Dazu"
}, {
  "id": 44,
  "fecha": "2/15/2019",
  "importe": 99,
  "latitud": 13.5742541,
  "longitud": -89.2062985,
  "ciudad": "Rosario de Mora"
}, {
  "id": 45,
  "fecha": "3/23/2018",
  "importe": 9,
  "latitud": 40.1336715,
  "longitud": 44.6507762,
  "ciudad": "Hats’avan"
}, {
  "id": 46,
  "fecha": "3/14/2018",
  "importe": 57,
  "latitud": 35.7952267,
  "longitud": 51.4322706,
  "ciudad": "Tajrīsh"
}, {
  "id": 47,
  "fecha": "6/26/2018",
  "importe": 23,
  "latitud": 40.5067525,
  "longitud": 47.6489641,
  "ciudad": "Ujar"
}, {
  "id": 48,
  "fecha": "1/23/2019",
  "importe": 10,
  "latitud": 14.5495607,
  "longitud": -90.7858316,
  "ciudad": "San Antonio Aguas Calientes"
}, {
  "id": 49,
  "fecha": "7/23/2018",
  "importe": 83,
  "latitud": 35.615079,
  "longitud": 111.547182,
  "ciudad": "Beidong"
}, {
  "id": 50,
  "fecha": "7/18/2018",
  "importe": 94,
  "latitud": 53.8514527,
  "longitud": 18.3991666,
  "ciudad": "Lubichowo"
}, {
  "id": 51,
  "fecha": "6/9/2018",
  "importe": 21,
  "latitud": 15.9754252,
  "longitud": 120.3554727,
  "ciudad": "Malabago"
}, {
  "id": 52,
  "fecha": "1/15/2019",
  "importe": 75,
  "latitud": 39.7715895,
  "longitud": -8.9263792,
  "ciudad": "Figueiras"
}, {
  "id": 53,
  "fecha": "3/26/2018",
  "importe": 43,
  "latitud": 38.5142512,
  "longitud": 116.5977552,
  "ciudad": "Litan"
}, {
  "id": 54,
  "fecha": "4/26/2018",
  "importe": 87,
  "latitud": 32.229334,
  "longitud": -110.8772009,
  "ciudad": "Tucson"
}, {
  "id": 55,
  "fecha": "5/4/2018",
  "importe": 37,
  "latitud": -8.1264039,
  "longitud": 111.7018452,
  "ciudad": "Gandusari"
}, {
  "id": 56,
  "fecha": "12/25/2018",
  "importe": 48,
  "latitud": 25.075123,
  "longitud": 117.017536,
  "ciudad": "Longtan"
}, {
  "id": 57,
  "fecha": "7/20/2018",
  "importe": 78,
  "latitud": 2.9344837,
  "longitud": -75.2809001,
  "ciudad": "Neiva"
}, {
  "id": 58,
  "fecha": "3/28/2018",
  "importe": 19,
  "latitud": 19.4621825,
  "longitud": -99.110685,
  "ciudad": "Belisario Dominguez"
}, {
  "id": 59,
  "fecha": "2/2/2019",
  "importe": 89,
  "latitud": 14.834691,
  "longitud": 120.78195,
  "ciudad": "Paombong"
}, {
  "id": 60,
  "fecha": "1/10/2019",
  "importe": 19,
  "latitud": 59.3335257,
  "longitud": 57.2583377,
  "ciudad": "Yayva"
}, {
  "id": 61,
  "fecha": "4/16/2018",
  "importe": 4,
  "latitud": 33.5147935,
  "longitud": 130.4936331,
  "ciudad": "Chikushino-shi"
}, {
  "id": 62,
  "fecha": "5/8/2018",
  "importe": 50,
  "latitud": 28.1732341,
  "longitud": 68.0179319,
  "ciudad": "Alīābad"
}, {
  "id": 63,
  "fecha": "10/16/2018",
  "importe": 6,
  "latitud": 25.234479,
  "longitud": 110.179953,
  "ciudad": "Guilin"
}, {
  "id": 64,
  "fecha": "5/28/2018",
  "importe": 74,
  "latitud": 46.4054155,
  "longitud": 16.4201451,
  "ciudad": "Šenkovec"
}, {
  "id": 65,
  "fecha": "5/16/2018",
  "importe": 56,
  "latitud": 14.87546,
  "longitud": -89.756308,
  "ciudad": "Cabañas"
}, {
  "id": 66,
  "fecha": "9/21/2018",
  "importe": 58,
  "latitud": -20.1364103,
  "longitud": 57.6679912,
  "ciudad": "Amaury"
}, {
  "id": 67,
  "fecha": "9/22/2018",
  "importe": 29,
  "latitud": 29.1416432,
  "longitud": 119.7889248,
  "ciudad": "Shejiang"
}, {
  "id": 68,
  "fecha": "10/16/2018",
  "importe": 52,
  "latitud": -8.5819296,
  "longitud": 115.1770586,
  "ciudad": "Badung"
}, {
  "id": 69,
  "fecha": "12/9/2018",
  "importe": 79,
  "latitud": -32.972878,
  "longitud": -60.6916164,
  "ciudad": "Cerrillos"
}, {
  "id": 70,
  "fecha": "7/25/2018",
  "importe": 29,
  "latitud": 15.0410586,
  "longitud": 120.0745042,
  "ciudad": "Bangad"
}, {
  "id": 71,
  "fecha": "3/24/2018",
  "importe": 9,
  "latitud": 38.914003,
  "longitud": 121.614682,
  "ciudad": "Dalian"
}, {
  "id": 72,
  "fecha": "12/29/2018",
  "importe": 53,
  "latitud": 43.6121586,
  "longitud": 3.8626074,
  "ciudad": "Montpellier"
}, {
  "id": 73,
  "fecha": "9/8/2018",
  "importe": 4,
  "latitud": 8.2301756,
  "longitud": -80.5549561,
  "ciudad": "Aguadulce"
}, {
  "id": 74,
  "fecha": "5/14/2018",
  "importe": 69,
  "latitud": "35.89917",
  "longitud": "14.49444",
  "ciudad": "Ta’ Xbiex"
}, {
  "id": 75,
  "fecha": "12/13/2018",
  "importe": 54,
  "latitud": 42.891255,
  "longitud": 129.508945,
  "ciudad": "Yajin"
}, {
  "id": 76,
  "fecha": "8/8/2018",
  "importe": 62,
  "latitud": 55.9437901,
  "longitud": 37.315783,
  "ciudad": "Skhodnya"
}, {
  "id": 77,
  "fecha": "3/25/2018",
  "importe": 56,
  "latitud": 18.0335359,
  "longitud": -77.856738,
  "ciudad": "Black River"
}, {
  "id": 78,
  "fecha": "1/16/2019",
  "importe": 24,
  "latitud": "-8.3115",
  "longitud": "121.6978",
  "ciudad": "Cawalo"
}, {
  "id": 79,
  "fecha": "4/18/2018",
  "importe": 17,
  "latitud": 53.9608024,
  "longitud": 105.8754575,
  "ciudad": "Kachug"
}, {
  "id": 80,
  "fecha": "7/16/2018",
  "importe": 25,
  "latitud": 14.6592829,
  "longitud": 121.0483527,
  "ciudad": "Naga"
}, {
  "id": 81,
  "fecha": "12/8/2018",
  "importe": 90,
  "latitud": 29.008966,
  "longitud": 111.573724,
  "ciudad": "Mutangyuan"
}, {
  "id": 82,
  "fecha": "3/24/2018",
  "importe": 72,
  "latitud": "15.58224",
  "longitud": "108.11422",
  "ciudad": "Doug An"
}, {
  "id": 83,
  "fecha": "6/24/2018",
  "importe": 38,
  "latitud": "13.83783",
  "longitud": "45.83488",
  "ciudad": "Jawf al Maqbābah"
}, {
  "id": 84,
  "fecha": "12/14/2018",
  "importe": 84,
  "latitud": 40.179599,
  "longitud": 112.891988,
  "ciudad": "Guanjiabao"
}, {
  "id": 85,
  "fecha": "2/15/2019",
  "importe": 91,
  "latitud": 3.856457,
  "longitud": -68.2385339,
  "ciudad": "Inírida"
}, {
  "id": 86,
  "fecha": "9/4/2018",
  "importe": 36,
  "latitud": -20.3596647,
  "longitud": -41.95889,
  "ciudad": "Manhumirim"
}, {
  "id": 87,
  "fecha": "10/24/2018",
  "importe": 37,
  "latitud": 38.9003669,
  "longitud": -77.0351137,
  "ciudad": "Washington"
}, {
  "id": 88,
  "fecha": "12/31/2018",
  "importe": 50,
  "latitud": -34.9001596,
  "longitud": -58.0352133,
  "ciudad": "La Plata"
}, {
  "id": 89,
  "fecha": "12/5/2018",
  "importe": 32,
  "latitud": 47.3695152,
  "longitud": 40.0905465,
  "ciudad": "Novocherkassk"
}, {
  "id": 90,
  "fecha": "6/30/2018",
  "importe": 17,
  "latitud": 44.1875931,
  "longitud": -77.3882908,
  "ciudad": "Skatepark"
}, {
  "id": 91,
  "fecha": "6/27/2018",
  "importe": 78,
  "latitud": "52.3506",
  "longitud": "31.1121",
  "ciudad": "Karanyowka"
}, {
  "id": 92,
  "fecha": "4/12/2018",
  "importe": 19,
  "latitud": 41.0243406,
  "longitud": 25.6957932,
  "ciudad": "Sápes"
}, {
  "id": 93,
  "fecha": "3/13/2018",
  "importe": 87,
  "latitud": 54.70972,
  "longitud": -7.74208,
  "ciudad": "Ballybofey"
}, {
  "id": 94,
  "fecha": "4/21/2018",
  "importe": 54,
  "latitud": -7.5201771,
  "longitud": 109.2638245,
  "ciudad": "Dawuhan"
}, {
  "id": 95,
  "fecha": "4/17/2018",
  "importe": 25,
  "latitud": 15.8352583,
  "longitud": 120.5648017,
  "ciudad": "San Pedro Apartado"
}, {
  "id": 96,
  "fecha": "9/22/2018",
  "importe": 34,
  "latitud": -16.7073638,
  "longitud": -47.5275422,
  "ciudad": "Cristalina"
}, {
  "id": 97,
  "fecha": "11/24/2018",
  "importe": 76,
  "latitud": 52.6340378,
  "longitud": 28.9459316,
  "ciudad": "Aktsyabrski"
}, {
  "id": 98,
  "fecha": "5/26/2018",
  "importe": 27,
  "latitud": -0.4960508,
  "longitud": 101.866362,
  "ciudad": "Cerenti"
}, {
  "id": 99,
  "fecha": "7/19/2018",
  "importe": 25,
  "latitud": 23.422152,
  "longitud": 106.681138,
  "ciudad": "Jiaocha"
}, {
  "id": 100,
  "fecha": "6/15/2018",
  "importe": 84,
  "latitud": 6.83249,
  "longitud": 124.454363,
  "ciudad": "Ampatuan"
}]
